

R version 3.2.3 (2015-12-10) -- "Wooden Christmas-Tree"
Copyright (C) 2015 The R Foundation for Statistical Computing
Platform: x86_64-apple-darwin13.4.0 (64-bit)

R est un logiciel libre livré sans AUCUNE GARANTIE.
Vous pouvez le redistribuer sous certaines conditions.
Tapez 'license()' ou 'licence()' pour plus de détails.

R est un projet collaboratif avec de nombreux contributeurs.
Tapez 'contributors()' pour plus d'information et
'citation()' pour la façon de le citer dans les publications.

Tapez 'demo()' pour des démonstrations, 'help()' pour l'aide
en ligne ou 'help.start()' pour obtenir l'aide au format HTML.
Tapez 'q()' pour quitter R.

[R.app GUI 1.66 (7060) x86_64-apple-darwin13.4.0]

[Historique recherché depuis /Users/camilleschahl/.Rapp.history]

> #Chapitre 2
> 
> #Exercice 1 
> #Créer le vecteur a: 
> a<-c(6,3,8,9)
> a
[1] 6 3 8 9
> #Créer le vecteur b: 
> b<-c(9,1,3,5)
> b
[1] 9 1 3 5
> #Les résultats dans une nouvelle variable c: 
> c<-rbind(a,b)
> c
  [,1] [,2] [,3] [,4]
a    6    3    8    9
b    9    1    3    5
> #La différence de a et b dans une nouvelle variable d: 
> d<-a-b
> d
[1] -3  2  5  4
> 
> #Exercice 2 
> #a*b: 
> a*b
[1] 54  3 24 45
> #Produit scalaire:
> a%*%b
     [,1]
[1,]  126
> 
> #Exercice 3
> #Créer une matrice A de dimension 30x30 avec des 2:
> A=matrix(2,nrow=30,ncol=30)
> A
      [,1] [,2] [,3] [,4] [,5] [,6] [,7] [,8] [,9] [,10] [,11] [,12] [,13]
 [1,]    2    2    2    2    2    2    2    2    2     2     2     2     2
 [2,]    2    2    2    2    2    2    2    2    2     2     2     2     2
 [3,]    2    2    2    2    2    2    2    2    2     2     2     2     2
 [4,]    2    2    2    2    2    2    2    2    2     2     2     2     2
 [5,]    2    2    2    2    2    2    2    2    2     2     2     2     2
 [6,]    2    2    2    2    2    2    2    2    2     2     2     2     2
 [7,]    2    2    2    2    2    2    2    2    2     2     2     2     2
 [8,]    2    2    2    2    2    2    2    2    2     2     2     2     2
 [9,]    2    2    2    2    2    2    2    2    2     2     2     2     2
[10,]    2    2    2    2    2    2    2    2    2     2     2     2     2
[11,]    2    2    2    2    2    2    2    2    2     2     2     2     2
[12,]    2    2    2    2    2    2    2    2    2     2     2     2     2
[13,]    2    2    2    2    2    2    2    2    2     2     2     2     2
[14,]    2    2    2    2    2    2    2    2    2     2     2     2     2
[15,]    2    2    2    2    2    2    2    2    2     2     2     2     2
[16,]    2    2    2    2    2    2    2    2    2     2     2     2     2
[17,]    2    2    2    2    2    2    2    2    2     2     2     2     2
[18,]    2    2    2    2    2    2    2    2    2     2     2     2     2
[19,]    2    2    2    2    2    2    2    2    2     2     2     2     2
[20,]    2    2    2    2    2    2    2    2    2     2     2     2     2
[21,]    2    2    2    2    2    2    2    2    2     2     2     2     2
[22,]    2    2    2    2    2    2    2    2    2     2     2     2     2
[23,]    2    2    2    2    2    2    2    2    2     2     2     2     2
[24,]    2    2    2    2    2    2    2    2    2     2     2     2     2
[25,]    2    2    2    2    2    2    2    2    2     2     2     2     2
[26,]    2    2    2    2    2    2    2    2    2     2     2     2     2
[27,]    2    2    2    2    2    2    2    2    2     2     2     2     2
[28,]    2    2    2    2    2    2    2    2    2     2     2     2     2
[29,]    2    2    2    2    2    2    2    2    2     2     2     2     2
[30,]    2    2    2    2    2    2    2    2    2     2     2     2     2
      [,14] [,15] [,16] [,17] [,18] [,19] [,20] [,21] [,22] [,23] [,24] [,25]
 [1,]     2     2     2     2     2     2     2     2     2     2     2     2
 [2,]     2     2     2     2     2     2     2     2     2     2     2     2
 [3,]     2     2     2     2     2     2     2     2     2     2     2     2
 [4,]     2     2     2     2     2     2     2     2     2     2     2     2
 [5,]     2     2     2     2     2     2     2     2     2     2     2     2
 [6,]     2     2     2     2     2     2     2     2     2     2     2     2
 [7,]     2     2     2     2     2     2     2     2     2     2     2     2
 [8,]     2     2     2     2     2     2     2     2     2     2     2     2
 [9,]     2     2     2     2     2     2     2     2     2     2     2     2
[10,]     2     2     2     2     2     2     2     2     2     2     2     2
[11,]     2     2     2     2     2     2     2     2     2     2     2     2
[12,]     2     2     2     2     2     2     2     2     2     2     2     2
[13,]     2     2     2     2     2     2     2     2     2     2     2     2
[14,]     2     2     2     2     2     2     2     2     2     2     2     2
[15,]     2     2     2     2     2     2     2     2     2     2     2     2
[16,]     2     2     2     2     2     2     2     2     2     2     2     2
[17,]     2     2     2     2     2     2     2     2     2     2     2     2
[18,]     2     2     2     2     2     2     2     2     2     2     2     2
[19,]     2     2     2     2     2     2     2     2     2     2     2     2
[20,]     2     2     2     2     2     2     2     2     2     2     2     2
[21,]     2     2     2     2     2     2     2     2     2     2     2     2
[22,]     2     2     2     2     2     2     2     2     2     2     2     2
[23,]     2     2     2     2     2     2     2     2     2     2     2     2
[24,]     2     2     2     2     2     2     2     2     2     2     2     2
[25,]     2     2     2     2     2     2     2     2     2     2     2     2
[26,]     2     2     2     2     2     2     2     2     2     2     2     2
[27,]     2     2     2     2     2     2     2     2     2     2     2     2
[28,]     2     2     2     2     2     2     2     2     2     2     2     2
[29,]     2     2     2     2     2     2     2     2     2     2     2     2
[30,]     2     2     2     2     2     2     2     2     2     2     2     2
      [,26] [,27] [,28] [,29] [,30]
 [1,]     2     2     2     2     2
 [2,]     2     2     2     2     2
 [3,]     2     2     2     2     2
 [4,]     2     2     2     2     2
 [5,]     2     2     2     2     2
 [6,]     2     2     2     2     2
 [7,]     2     2     2     2     2
 [8,]     2     2     2     2     2
 [9,]     2     2     2     2     2
[10,]     2     2     2     2     2
[11,]     2     2     2     2     2
[12,]     2     2     2     2     2
[13,]     2     2     2     2     2
[14,]     2     2     2     2     2
[15,]     2     2     2     2     2
[16,]     2     2     2     2     2
[17,]     2     2     2     2     2
[18,]     2     2     2     2     2
[19,]     2     2     2     2     2
[20,]     2     2     2     2     2
[21,]     2     2     2     2     2
[22,]     2     2     2     2     2
[23,]     2     2     2     2     2
[24,]     2     2     2     2     2
[25,]     2     2     2     2     2
[26,]     2     2     2     2     2
[27,]     2     2     2     2     2
[28,]     2     2     2     2     2
[29,]     2     2     2     2     2
[30,]     2     2     2     2     2
> #Créer une matrice B de même dimension avec des 4:
> B=matrix(4,nrow=30,ncol=30)
> B
      [,1] [,2] [,3] [,4] [,5] [,6] [,7] [,8] [,9] [,10] [,11] [,12] [,13]
 [1,]    4    4    4    4    4    4    4    4    4     4     4     4     4
 [2,]    4    4    4    4    4    4    4    4    4     4     4     4     4
 [3,]    4    4    4    4    4    4    4    4    4     4     4     4     4
 [4,]    4    4    4    4    4    4    4    4    4     4     4     4     4
 [5,]    4    4    4    4    4    4    4    4    4     4     4     4     4
 [6,]    4    4    4    4    4    4    4    4    4     4     4     4     4
 [7,]    4    4    4    4    4    4    4    4    4     4     4     4     4
 [8,]    4    4    4    4    4    4    4    4    4     4     4     4     4
 [9,]    4    4    4    4    4    4    4    4    4     4     4     4     4
[10,]    4    4    4    4    4    4    4    4    4     4     4     4     4
[11,]    4    4    4    4    4    4    4    4    4     4     4     4     4
[12,]    4    4    4    4    4    4    4    4    4     4     4     4     4
[13,]    4    4    4    4    4    4    4    4    4     4     4     4     4
[14,]    4    4    4    4    4    4    4    4    4     4     4     4     4
[15,]    4    4    4    4    4    4    4    4    4     4     4     4     4
[16,]    4    4    4    4    4    4    4    4    4     4     4     4     4
[17,]    4    4    4    4    4    4    4    4    4     4     4     4     4
[18,]    4    4    4    4    4    4    4    4    4     4     4     4     4
[19,]    4    4    4    4    4    4    4    4    4     4     4     4     4
[20,]    4    4    4    4    4    4    4    4    4     4     4     4     4
[21,]    4    4    4    4    4    4    4    4    4     4     4     4     4
[22,]    4    4    4    4    4    4    4    4    4     4     4     4     4
[23,]    4    4    4    4    4    4    4    4    4     4     4     4     4
[24,]    4    4    4    4    4    4    4    4    4     4     4     4     4
[25,]    4    4    4    4    4    4    4    4    4     4     4     4     4
[26,]    4    4    4    4    4    4    4    4    4     4     4     4     4
[27,]    4    4    4    4    4    4    4    4    4     4     4     4     4
[28,]    4    4    4    4    4    4    4    4    4     4     4     4     4
[29,]    4    4    4    4    4    4    4    4    4     4     4     4     4
[30,]    4    4    4    4    4    4    4    4    4     4     4     4     4
      [,14] [,15] [,16] [,17] [,18] [,19] [,20] [,21] [,22] [,23] [,24] [,25]
 [1,]     4     4     4     4     4     4     4     4     4     4     4     4
 [2,]     4     4     4     4     4     4     4     4     4     4     4     4
 [3,]     4     4     4     4     4     4     4     4     4     4     4     4
 [4,]     4     4     4     4     4     4     4     4     4     4     4     4
 [5,]     4     4     4     4     4     4     4     4     4     4     4     4
 [6,]     4     4     4     4     4     4     4     4     4     4     4     4
 [7,]     4     4     4     4     4     4     4     4     4     4     4     4
 [8,]     4     4     4     4     4     4     4     4     4     4     4     4
 [9,]     4     4     4     4     4     4     4     4     4     4     4     4
[10,]     4     4     4     4     4     4     4     4     4     4     4     4
[11,]     4     4     4     4     4     4     4     4     4     4     4     4
[12,]     4     4     4     4     4     4     4     4     4     4     4     4
[13,]     4     4     4     4     4     4     4     4     4     4     4     4
[14,]     4     4     4     4     4     4     4     4     4     4     4     4
[15,]     4     4     4     4     4     4     4     4     4     4     4     4
[16,]     4     4     4     4     4     4     4     4     4     4     4     4
[17,]     4     4     4     4     4     4     4     4     4     4     4     4
[18,]     4     4     4     4     4     4     4     4     4     4     4     4
[19,]     4     4     4     4     4     4     4     4     4     4     4     4
[20,]     4     4     4     4     4     4     4     4     4     4     4     4
[21,]     4     4     4     4     4     4     4     4     4     4     4     4
[22,]     4     4     4     4     4     4     4     4     4     4     4     4
[23,]     4     4     4     4     4     4     4     4     4     4     4     4
[24,]     4     4     4     4     4     4     4     4     4     4     4     4
[25,]     4     4     4     4     4     4     4     4     4     4     4     4
[26,]     4     4     4     4     4     4     4     4     4     4     4     4
[27,]     4     4     4     4     4     4     4     4     4     4     4     4
[28,]     4     4     4     4     4     4     4     4     4     4     4     4
[29,]     4     4     4     4     4     4     4     4     4     4     4     4
[30,]     4     4     4     4     4     4     4     4     4     4     4     4
      [,26] [,27] [,28] [,29] [,30]
 [1,]     4     4     4     4     4
 [2,]     4     4     4     4     4
 [3,]     4     4     4     4     4
 [4,]     4     4     4     4     4
 [5,]     4     4     4     4     4
 [6,]     4     4     4     4     4
 [7,]     4     4     4     4     4
 [8,]     4     4     4     4     4
 [9,]     4     4     4     4     4
[10,]     4     4     4     4     4
[11,]     4     4     4     4     4
[12,]     4     4     4     4     4
[13,]     4     4     4     4     4
[14,]     4     4     4     4     4
[15,]     4     4     4     4     4
[16,]     4     4     4     4     4
[17,]     4     4     4     4     4
[18,]     4     4     4     4     4
[19,]     4     4     4     4     4
[20,]     4     4     4     4     4
[21,]     4     4     4     4     4
[22,]     4     4     4     4     4
[23,]     4     4     4     4     4
[24,]     4     4     4     4     4
[25,]     4     4     4     4     4
[26,]     4     4     4     4     4
[27,]     4     4     4     4     4
[28,]     4     4     4     4     4
[29,]     4     4     4     4     4
[30,]     4     4     4     4     4
> #A*B
> A*B
      [,1] [,2] [,3] [,4] [,5] [,6] [,7] [,8] [,9] [,10] [,11] [,12] [,13]
 [1,]    8    8    8    8    8    8    8    8    8     8     8     8     8
 [2,]    8    8    8    8    8    8    8    8    8     8     8     8     8
 [3,]    8    8    8    8    8    8    8    8    8     8     8     8     8
 [4,]    8    8    8    8    8    8    8    8    8     8     8     8     8
 [5,]    8    8    8    8    8    8    8    8    8     8     8     8     8
 [6,]    8    8    8    8    8    8    8    8    8     8     8     8     8
 [7,]    8    8    8    8    8    8    8    8    8     8     8     8     8
 [8,]    8    8    8    8    8    8    8    8    8     8     8     8     8
 [9,]    8    8    8    8    8    8    8    8    8     8     8     8     8
[10,]    8    8    8    8    8    8    8    8    8     8     8     8     8
[11,]    8    8    8    8    8    8    8    8    8     8     8     8     8
[12,]    8    8    8    8    8    8    8    8    8     8     8     8     8
[13,]    8    8    8    8    8    8    8    8    8     8     8     8     8
[14,]    8    8    8    8    8    8    8    8    8     8     8     8     8
[15,]    8    8    8    8    8    8    8    8    8     8     8     8     8
[16,]    8    8    8    8    8    8    8    8    8     8     8     8     8
[17,]    8    8    8    8    8    8    8    8    8     8     8     8     8
[18,]    8    8    8    8    8    8    8    8    8     8     8     8     8
[19,]    8    8    8    8    8    8    8    8    8     8     8     8     8
[20,]    8    8    8    8    8    8    8    8    8     8     8     8     8
[21,]    8    8    8    8    8    8    8    8    8     8     8     8     8
[22,]    8    8    8    8    8    8    8    8    8     8     8     8     8
[23,]    8    8    8    8    8    8    8    8    8     8     8     8     8
[24,]    8    8    8    8    8    8    8    8    8     8     8     8     8
[25,]    8    8    8    8    8    8    8    8    8     8     8     8     8
[26,]    8    8    8    8    8    8    8    8    8     8     8     8     8
[27,]    8    8    8    8    8    8    8    8    8     8     8     8     8
[28,]    8    8    8    8    8    8    8    8    8     8     8     8     8
[29,]    8    8    8    8    8    8    8    8    8     8     8     8     8
[30,]    8    8    8    8    8    8    8    8    8     8     8     8     8
      [,14] [,15] [,16] [,17] [,18] [,19] [,20] [,21] [,22] [,23] [,24] [,25]
 [1,]     8     8     8     8     8     8     8     8     8     8     8     8
 [2,]     8     8     8     8     8     8     8     8     8     8     8     8
 [3,]     8     8     8     8     8     8     8     8     8     8     8     8
 [4,]     8     8     8     8     8     8     8     8     8     8     8     8
 [5,]     8     8     8     8     8     8     8     8     8     8     8     8
 [6,]     8     8     8     8     8     8     8     8     8     8     8     8
 [7,]     8     8     8     8     8     8     8     8     8     8     8     8
 [8,]     8     8     8     8     8     8     8     8     8     8     8     8
 [9,]     8     8     8     8     8     8     8     8     8     8     8     8
[10,]     8     8     8     8     8     8     8     8     8     8     8     8
[11,]     8     8     8     8     8     8     8     8     8     8     8     8
[12,]     8     8     8     8     8     8     8     8     8     8     8     8
[13,]     8     8     8     8     8     8     8     8     8     8     8     8
[14,]     8     8     8     8     8     8     8     8     8     8     8     8
[15,]     8     8     8     8     8     8     8     8     8     8     8     8
[16,]     8     8     8     8     8     8     8     8     8     8     8     8
[17,]     8     8     8     8     8     8     8     8     8     8     8     8
[18,]     8     8     8     8     8     8     8     8     8     8     8     8
[19,]     8     8     8     8     8     8     8     8     8     8     8     8
[20,]     8     8     8     8     8     8     8     8     8     8     8     8
[21,]     8     8     8     8     8     8     8     8     8     8     8     8
[22,]     8     8     8     8     8     8     8     8     8     8     8     8
[23,]     8     8     8     8     8     8     8     8     8     8     8     8
[24,]     8     8     8     8     8     8     8     8     8     8     8     8
[25,]     8     8     8     8     8     8     8     8     8     8     8     8
[26,]     8     8     8     8     8     8     8     8     8     8     8     8
[27,]     8     8     8     8     8     8     8     8     8     8     8     8
[28,]     8     8     8     8     8     8     8     8     8     8     8     8
[29,]     8     8     8     8     8     8     8     8     8     8     8     8
[30,]     8     8     8     8     8     8     8     8     8     8     8     8
      [,26] [,27] [,28] [,29] [,30]
 [1,]     8     8     8     8     8
 [2,]     8     8     8     8     8
 [3,]     8     8     8     8     8
 [4,]     8     8     8     8     8
 [5,]     8     8     8     8     8
 [6,]     8     8     8     8     8
 [7,]     8     8     8     8     8
 [8,]     8     8     8     8     8
 [9,]     8     8     8     8     8
[10,]     8     8     8     8     8
[11,]     8     8     8     8     8
[12,]     8     8     8     8     8
[13,]     8     8     8     8     8
[14,]     8     8     8     8     8
[15,]     8     8     8     8     8
[16,]     8     8     8     8     8
[17,]     8     8     8     8     8
[18,]     8     8     8     8     8
[19,]     8     8     8     8     8
[20,]     8     8     8     8     8
[21,]     8     8     8     8     8
[22,]     8     8     8     8     8
[23,]     8     8     8     8     8
[24,]     8     8     8     8     8
[25,]     8     8     8     8     8
[26,]     8     8     8     8     8
[27,]     8     8     8     8     8
[28,]     8     8     8     8     8
[29,]     8     8     8     8     8
[30,]     8     8     8     8     8
> #Produit scalaire
> A%*%B
      [,1] [,2] [,3] [,4] [,5] [,6] [,7] [,8] [,9] [,10] [,11] [,12] [,13]
 [1,]  240  240  240  240  240  240  240  240  240   240   240   240   240
 [2,]  240  240  240  240  240  240  240  240  240   240   240   240   240
 [3,]  240  240  240  240  240  240  240  240  240   240   240   240   240
 [4,]  240  240  240  240  240  240  240  240  240   240   240   240   240
 [5,]  240  240  240  240  240  240  240  240  240   240   240   240   240
 [6,]  240  240  240  240  240  240  240  240  240   240   240   240   240
 [7,]  240  240  240  240  240  240  240  240  240   240   240   240   240
 [8,]  240  240  240  240  240  240  240  240  240   240   240   240   240
 [9,]  240  240  240  240  240  240  240  240  240   240   240   240   240
[10,]  240  240  240  240  240  240  240  240  240   240   240   240   240
[11,]  240  240  240  240  240  240  240  240  240   240   240   240   240
[12,]  240  240  240  240  240  240  240  240  240   240   240   240   240
[13,]  240  240  240  240  240  240  240  240  240   240   240   240   240
[14,]  240  240  240  240  240  240  240  240  240   240   240   240   240
[15,]  240  240  240  240  240  240  240  240  240   240   240   240   240
[16,]  240  240  240  240  240  240  240  240  240   240   240   240   240
[17,]  240  240  240  240  240  240  240  240  240   240   240   240   240
[18,]  240  240  240  240  240  240  240  240  240   240   240   240   240
[19,]  240  240  240  240  240  240  240  240  240   240   240   240   240
[20,]  240  240  240  240  240  240  240  240  240   240   240   240   240
[21,]  240  240  240  240  240  240  240  240  240   240   240   240   240
[22,]  240  240  240  240  240  240  240  240  240   240   240   240   240
[23,]  240  240  240  240  240  240  240  240  240   240   240   240   240
[24,]  240  240  240  240  240  240  240  240  240   240   240   240   240
[25,]  240  240  240  240  240  240  240  240  240   240   240   240   240
[26,]  240  240  240  240  240  240  240  240  240   240   240   240   240
[27,]  240  240  240  240  240  240  240  240  240   240   240   240   240
[28,]  240  240  240  240  240  240  240  240  240   240   240   240   240
[29,]  240  240  240  240  240  240  240  240  240   240   240   240   240
[30,]  240  240  240  240  240  240  240  240  240   240   240   240   240
      [,14] [,15] [,16] [,17] [,18] [,19] [,20] [,21] [,22] [,23] [,24] [,25]
 [1,]   240   240   240   240   240   240   240   240   240   240   240   240
 [2,]   240   240   240   240   240   240   240   240   240   240   240   240
 [3,]   240   240   240   240   240   240   240   240   240   240   240   240
 [4,]   240   240   240   240   240   240   240   240   240   240   240   240
 [5,]   240   240   240   240   240   240   240   240   240   240   240   240
 [6,]   240   240   240   240   240   240   240   240   240   240   240   240
 [7,]   240   240   240   240   240   240   240   240   240   240   240   240
 [8,]   240   240   240   240   240   240   240   240   240   240   240   240
 [9,]   240   240   240   240   240   240   240   240   240   240   240   240
[10,]   240   240   240   240   240   240   240   240   240   240   240   240
[11,]   240   240   240   240   240   240   240   240   240   240   240   240
[12,]   240   240   240   240   240   240   240   240   240   240   240   240
[13,]   240   240   240   240   240   240   240   240   240   240   240   240
[14,]   240   240   240   240   240   240   240   240   240   240   240   240
[15,]   240   240   240   240   240   240   240   240   240   240   240   240
[16,]   240   240   240   240   240   240   240   240   240   240   240   240
[17,]   240   240   240   240   240   240   240   240   240   240   240   240
[18,]   240   240   240   240   240   240   240   240   240   240   240   240
[19,]   240   240   240   240   240   240   240   240   240   240   240   240
[20,]   240   240   240   240   240   240   240   240   240   240   240   240
[21,]   240   240   240   240   240   240   240   240   240   240   240   240
[22,]   240   240   240   240   240   240   240   240   240   240   240   240
[23,]   240   240   240   240   240   240   240   240   240   240   240   240
[24,]   240   240   240   240   240   240   240   240   240   240   240   240
[25,]   240   240   240   240   240   240   240   240   240   240   240   240
[26,]   240   240   240   240   240   240   240   240   240   240   240   240
[27,]   240   240   240   240   240   240   240   240   240   240   240   240
[28,]   240   240   240   240   240   240   240   240   240   240   240   240
[29,]   240   240   240   240   240   240   240   240   240   240   240   240
[30,]   240   240   240   240   240   240   240   240   240   240   240   240
      [,26] [,27] [,28] [,29] [,30]
 [1,]   240   240   240   240   240
 [2,]   240   240   240   240   240
 [3,]   240   240   240   240   240
 [4,]   240   240   240   240   240
 [5,]   240   240   240   240   240
 [6,]   240   240   240   240   240
 [7,]   240   240   240   240   240
 [8,]   240   240   240   240   240
 [9,]   240   240   240   240   240
[10,]   240   240   240   240   240
[11,]   240   240   240   240   240
[12,]   240   240   240   240   240
[13,]   240   240   240   240   240
[14,]   240   240   240   240   240
[15,]   240   240   240   240   240
[16,]   240   240   240   240   240
[17,]   240   240   240   240   240
[18,]   240   240   240   240   240
[19,]   240   240   240   240   240
[20,]   240   240   240   240   240
[21,]   240   240   240   240   240
[22,]   240   240   240   240   240
[23,]   240   240   240   240   240
[24,]   240   240   240   240   240
[25,]   240   240   240   240   240
[26,]   240   240   240   240   240
[27,]   240   240   240   240   240
[28,]   240   240   240   240   240
[29,]   240   240   240   240   240
[30,]   240   240   240   240   240
> #On remarque que le * est une multiplication simple alors que le %*% est une multiplication entre matrice et vecteur (produit scalaire)
> 
> #Exercice 4 
> a<-"schahl"
> b<-"camille"
> paste(a,b)
[1] "schahl camille"
> #La commande paste(a,b) donne a suivi de b soit le nom suivi du prénom.
> 
> #Exercice 5
> #Affecter valeurs aux variables
> a<-8
> b<-3
> c<-19
> a>b
[1] TRUE
> #a est supérieur à b 
> a==b
[1] FALSE
> #a n'est pas égal à b
> a!=b
[1] TRUE
> #a est différent de b 
> a<b 
[1] FALSE
> #a n'est pas inférieur à b
> (a>b)&&(a<c)
[1] TRUE
> #a est supérieur à b et inférieur à c 
> (a>b)&&(a>c)
[1] FALSE
> #a n'est supérieur à c mais supérieur à b 
> (a > b) || (a < b)
[1] TRUE
> #a est supérieur à b 
> 
> #Exercice 6
> #définir la matrice A: 
> A=matrix(c(9,5,2,9,4,0,6,2,12,7,8,9),nrow=4,ncol=3)
> A
     [,1] [,2] [,3]
[1,]    9    4   12
[2,]    5    0    7
[3,]    2    6    8
[4,]    9    2    9
> # A supérieur ou égal à 5:
> A>=5
      [,1]  [,2] [,3]
[1,]  TRUE FALSE TRUE
[2,]  TRUE FALSE TRUE
[3,] FALSE  TRUE TRUE
[4,]  TRUE FALSE TRUE
> 
> #2ème colonne de A:
> A[ , 2]
[1] 4 0 6 2
> #La transposée de A
> t(A)
     [,1] [,2] [,3] [,4]
[1,]    9    5    2    9
[2,]    4    0    6    2
[3,]   12    7    8    9
> 
> #Excercice 7 
> A=matrix(c(9,5,2,9,4,0,6,2,12,7,8,9,2,9,0,11),nrow=4,ncol=4)
> A
     [,1] [,2] [,3] [,4]
[1,]    9    4   12    2
[2,]    5    0    7    9
[3,]    2    6    8    0
[4,]    9    2    9   11
> B=matrix(c(7,18,1,0),nrow=4,ncol=1)
> B
     [,1]
[1,]    7
[2,]   18
[3,]    1
[4,]    0
> #AxX=B : A^-1B
> #Inverse de A: 
> A1=solve(A)
> A1%*%B
           [,1]
[1,] -4.2028571
[2,] -6.2285714
[3,]  5.8471429
[4,] -0.2128571
> solve(A,B)
           [,1]
[1,] -4.2028571
[2,] -6.2285714
[3,]  5.8471429
[4,] -0.2128571
> 